{
  "meta": {
    "created_at": "2020-12-19 13:01:38",
    "base_url": "https:\/\/www.cardkingdom.com\/"
  },
  "data": [{
    "id": 10000,
    "sku": "4ED-117",
    "url": "mtg\/4th-edition\/abomination",
    "name": "Abomination",
    "variation": "",
    "edition": "4th Edition",
    "is_foil": "false",
    "price_retail": "0.25",
    "qty_retail": 48,
    "price_buy": "0.05",
    "qty_buying": 0
  }]
}
